## Title: Auc:Util:Search UI
## Notes: Auctioneer utility module that aids in the search for items posted on the Auction House.
##
## Interface: 80205
## Dependencies: Auc-Advanced, Stubby
##
## Version: <%version%> (<%codename%>)
## Revision: $Id$
## Author: Norganna's AddOns
## X-Part-Of: Auctioneer
## X-Category: Auction House
## X-Max-Interface: 80100
## X-URL: http://auctioneeraddon.com/
## X-Feedback: http://forums.norganna.org
##
Embed.xml
